<svg width="48" height="48" viewBox="0 0 48 48" fill="none" xmlns="http://www.w3.org/2000/svg">
<rect x="1.5" y="1.5" width="45" height="45" rx="4.5" stroke="url(#paint0_linear_507_58)" stroke-width="3"/>
<path d="M15.36 39.17V9.59998H33.0905V12.7764H18.9407V22.7679H31.7621V25.9444H18.9407V39.17H15.36Z" fill="url(#paint1_linear_507_58)"/>
<defs>
<linearGradient id="paint0_linear_507_58" x1="52.2" y1="-18.7742" x2="-4.9743" y2="49.8542" gradientUnits="userSpaceOnUse">
<stop stop-color="#00ADFE"/>
<stop offset="1" stop-color="#3B7DFF"/>
</linearGradient>
<linearGradient id="paint1_linear_507_58" x1="34.6419" y1="-1.96573" x2="0.684241" y2="22.4747" gradientUnits="userSpaceOnUse">
<stop stop-color="#00ADFE"/>
<stop offset="1" stop-color="#3B7DFF"/>
</linearGradient>
</defs>
</svg>
