<svg width="44" height="51" viewBox="0 0 44 51" fill="none" xmlns="http://www.w3.org/2000/svg">
<path fill-rule="evenodd" clip-rule="evenodd" d="M10.9896 11.5795L0.989663 21.2065C0.44937 21.7266 0.44922 22.5914 0.989334 23.1118V23.1118V23.1118C1.52936 23.632 1.52949 24.4968 0.98947 25.017V25.017V25.017C0.449386 25.5373 0.449358 26.402 0.989409 26.9222L1.00011 26.9325V26.9325C1.54598 27.4583 1.54589 28.3324 0.999839 28.858V28.858V28.858C0.453898 29.3836 0.453901 30.2575 0.999845 30.7831L11.0001 40.4103L20.613 49.6647C21.3875 50.4102 22.6128 50.4102 23.3872 49.6647L33 40.4104L43 30.7834C43.5461 30.2577 43.5462 29.3836 43.0003 28.8576V28.8576V28.8576C42.4545 28.3319 42.4542 27.4577 43.0002 26.9321V26.9321L43.0105 26.9221C43.5508 26.4021 43.551 25.5374 43.0109 25.0172V25.0172V25.0172C42.4708 24.4969 42.4708 23.6321 43.0109 23.1118V23.1118V23.1118C43.5511 22.5914 43.5509 21.7266 43.0106 21.2065L33.0106 11.5795C26.9665 5.76072 22.0117 1 22.0001 1C21.9885 1 17.0338 5.76072 10.9896 11.5795ZM32.0525 12.4812L41.5682 21.642C41.8499 21.9132 41.8502 22.364 41.5688 22.6356V22.6356V22.6356C41.2812 22.913 40.8257 22.9133 40.5378 22.6361L31.5269 13.9613L23.3872 6.12537C22.6128 5.37981 21.3875 5.37982 20.6131 6.12538L12.4736 13.9612L3.46288 22.6358C3.17491 22.913 2.71932 22.913 2.43132 22.6358V22.6358V22.6358C2.14967 22.3647 2.14967 21.9138 2.43132 21.6427L11.9473 12.4816C17.4648 7.16994 21.9885 2.82397 22.0001 2.82397C22.0116 2.82397 26.5352 7.1698 32.0525 12.4812ZM31.0527 15.3695L39.5685 23.5678C39.8501 23.8389 39.8501 24.2897 39.5685 24.5608V24.5608V24.5608C39.2806 24.838 38.825 24.8381 38.537 24.5608L30.5264 16.8491L23.3872 9.97623C22.6128 9.23067 21.3875 9.23067 20.613 9.97623L13.4739 16.8491L5.46324 24.5609C5.17529 24.8381 4.71972 24.838 4.43181 24.5608V24.5608V24.5608C4.15018 24.2897 4.15014 23.8389 4.43174 23.5678L12.9476 15.3695C17.9148 10.5875 21.9885 6.67481 22.0001 6.67481C22.0117 6.67481 26.0854 10.5875 31.0527 15.3695ZM30.0634 18.2273L36.6089 24.5288C37.4261 25.3155 37.4261 26.6237 36.6089 27.4104L30.0529 33.722L23.3872 40.1389C22.6128 40.8845 21.3875 40.8845 20.6131 40.1389L13.9474 33.722L7.39142 27.4104C6.57422 26.6237 6.57422 25.3155 7.39142 24.5288L13.9369 18.2273C18.3601 13.9692 21.9885 10.4852 22.0001 10.4852C22.0117 10.4852 25.6402 13.9692 30.0634 18.2273ZM3.46376 26.4859V26.4859C3.17614 26.7634 2.72045 26.7639 2.43214 26.4871V26.4871V26.4871C2.15024 26.2162 2.14962 25.7653 2.43091 25.4939V25.4939V25.4939C2.71851 25.2163 3.17424 25.2158 3.46253 25.4927V25.4927V25.4927C3.74449 25.7635 3.74504 26.2144 3.46376 26.4859V26.4859ZM41.5694 26.4859V26.4859C41.2817 26.7634 40.8261 26.7639 40.5377 26.4871V26.4871V26.4871C40.2558 26.2162 40.2552 25.7653 40.5365 25.4939V25.4939V25.4939C40.8241 25.2163 41.2798 25.2158 41.5681 25.4927V25.4927V25.4927C41.8501 25.7635 41.8506 26.2144 41.5694 26.4859V26.4859ZM30.5374 35.12L38.5588 27.3979C38.8467 27.1207 39.3023 27.121 39.5899 27.3985V27.3985V27.3985C39.8713 27.67 39.871 28.1209 39.5893 28.3921L31.0526 36.6104L23.3872 43.9897C22.6128 44.7353 21.3875 44.7353 20.6131 43.9897L12.9477 36.6104L4.41099 28.3921C4.12929 28.1209 4.12902 27.67 4.4104 27.3985V27.3985V27.3985C4.69799 27.121 5.1536 27.1207 5.44152 27.3979L13.4628 35.12L20.613 42.0035C21.3875 42.7491 22.6128 42.7491 23.3872 42.0035L30.5374 35.12ZM31.5269 37.9779L40.5378 29.3031C40.8257 29.0259 41.2812 29.0262 41.5688 29.3036V29.3036V29.3036C41.8502 29.5752 41.8499 30.026 41.5682 30.2972L32.042 39.4681L23.3872 47.8C22.6128 48.5456 21.3875 48.5455 20.6131 47.8L11.9582 39.4681L2.43205 30.2972C2.15034 30.026 2.15007 29.5752 2.43145 29.3036V29.3036V29.3036C2.71906 29.0262 3.17462 29.0259 3.46251 29.3031L12.4734 37.9779L20.6131 45.8138C21.3875 46.5594 22.6128 46.5594 23.3872 45.8138L31.5269 37.9779Z" stroke="url(#paint0_linear_507_15)" stroke-width="0.5"/>
<path fill-rule="evenodd" clip-rule="evenodd" d="M10.9896 11.5795L0.989663 21.2065C0.44937 21.7266 0.44922 22.5914 0.989334 23.1118C1.52936 23.632 1.52949 24.4968 0.98947 25.017C0.449386 25.5373 0.449358 26.402 0.989409 26.9222L1.00011 26.9325C1.54598 27.4583 1.54589 28.3324 0.999839 28.858C0.453898 29.3836 0.453901 30.2575 0.999845 30.7831L11.0001 40.4103L20.613 49.6646C21.3875 50.4102 22.6128 50.4102 23.3872 49.6646L33 40.4104L43 30.7834C43.5461 30.2577 43.5462 29.3836 43.0003 28.8576C42.4545 28.3319 42.4542 27.4577 43.0002 26.9321L43.0105 26.9221C43.5508 26.4021 43.551 25.5374 43.0109 25.0172C42.4708 24.4969 42.4708 23.6321 43.0109 23.1118C43.5511 22.5914 43.5509 21.7266 43.0106 21.2065L33.0106 11.5795C26.9665 5.76072 22.0117 1 22.0001 1C21.9885 1 17.0338 5.76072 10.9896 11.5795ZM32.0525 12.4812L41.5682 21.642C41.8499 21.9132 41.8502 22.364 41.5688 22.6356C41.2812 22.913 40.8257 22.9133 40.5378 22.6361L31.5269 13.9613L23.3872 6.12537C22.6128 5.37981 21.3875 5.37982 20.6131 6.12538L12.4736 13.9612L3.46288 22.6358C3.17491 22.913 2.71932 22.913 2.43132 22.6358C2.14967 22.3647 2.14967 21.9138 2.43132 21.6427L11.9473 12.4816C17.4648 7.16994 21.9885 2.82397 22.0001 2.82397C22.0116 2.82397 26.5352 7.1698 32.0525 12.4812ZM31.0527 15.3695L39.5685 23.5678C39.8501 23.8389 39.8501 24.2897 39.5685 24.5608C39.2806 24.838 38.825 24.8381 38.537 24.5609L30.5264 16.8491L23.3872 9.97623C22.6128 9.23067 21.3875 9.23067 20.613 9.97623L13.4739 16.8491L5.46324 24.5609C5.17529 24.8381 4.71972 24.838 4.43181 24.5608C4.15018 24.2897 4.15014 23.8389 4.43174 23.5678L12.9476 15.3695C17.9148 10.5875 21.9885 6.67481 22.0001 6.67481C22.0117 6.67481 26.0854 10.5875 31.0527 15.3695ZM30.0634 18.2273L36.6089 24.5288C37.4261 25.3155 37.4261 26.6237 36.6089 27.4104L30.0529 33.722L23.3872 40.1389C22.6128 40.8844 21.3875 40.8844 20.6131 40.1389L13.9474 33.722L7.39142 27.4104C6.57422 26.6237 6.57422 25.3155 7.39142 24.5288L13.9369 18.2273C18.3601 13.9692 21.9885 10.4852 22.0001 10.4852C22.0117 10.4852 25.6402 13.9692 30.0634 18.2273ZM3.46376 26.4859C3.17614 26.7634 2.72045 26.7639 2.43214 26.4871C2.15024 26.2162 2.14962 25.7653 2.43091 25.4939C2.71851 25.2163 3.17424 25.2158 3.46253 25.4927C3.74449 25.7635 3.74504 26.2144 3.46376 26.4859ZM41.5694 26.4859C41.2817 26.7634 40.8261 26.7639 40.5377 26.4871C40.2558 26.2162 40.2552 25.7653 40.5365 25.4939C40.8241 25.2163 41.2798 25.2158 41.5681 25.4927C41.8501 25.7635 41.8506 26.2144 41.5694 26.4859ZM30.5374 35.12L38.5588 27.3979C38.8467 27.1207 39.3023 27.121 39.5899 27.3985C39.8713 27.67 39.871 28.1209 39.5893 28.3921L31.0526 36.6104L23.3872 43.9897C22.6128 44.7353 21.3875 44.7353 20.6131 43.9897L12.9477 36.6104L4.41099 28.3921C4.12929 28.1209 4.12902 27.67 4.4104 27.3985C4.69799 27.121 5.1536 27.1207 5.44152 27.3979L13.4628 35.12L20.613 42.0035C21.3875 42.7491 22.6128 42.7491 23.3872 42.0035L30.5374 35.12ZM31.5269 37.9779L40.5378 29.3031C40.8257 29.0259 41.2812 29.0262 41.5688 29.3036C41.8502 29.5752 41.8499 30.026 41.5682 30.2972L32.042 39.4681L23.3872 47.8C22.6128 48.5456 21.3875 48.5455 20.6131 47.8L11.9582 39.4681L2.43205 30.2972C2.15034 30.026 2.15007 29.5752 2.43145 29.3036C2.71906 29.0262 3.17462 29.0259 3.46251 29.3031L12.4734 37.9779L20.6131 45.8138C21.3875 46.5594 22.6128 46.5594 23.3872 45.8138L31.5269 37.9779Z" fill="url(#paint1_linear_507_15)"/>
<defs>
<linearGradient id="paint0_linear_507_15" x1="22" y1="1" x2="22" y2="51" gradientUnits="userSpaceOnUse">
<stop stop-color="#1E8CFF"/>
<stop offset="1" stop-color="#6566FF"/>
</linearGradient>
<linearGradient id="paint1_linear_507_15" x1="22" y1="1" x2="22" y2="51" gradientUnits="userSpaceOnUse">
<stop stop-color="#1E8CFF"/>
<stop offset="1" stop-color="#6566FF"/>
</linearGradient>
</defs>
</svg>
