<svg width="50" height="52" viewBox="0 0 50 52" fill="none" xmlns="http://www.w3.org/2000/svg">
<path d="M3.27396 3.09879V48.9011H6.59378V50H2V2H6.59378V3.09879H3.27396Z" fill="url(#paint0_linear_1_151)"/>
<path fill-rule="evenodd" clip-rule="evenodd" d="M0.75 0.75H7.84378V4.34879H4.52396V47.6511H7.84378V51.25H0.75V0.75Z" fill="url(#paint1_linear_1_151)"/>
<path d="M16.0641 17.6187V19.9366H16.1306C16.7532 19.0543 17.5032 18.3692 18.3817 17.8835C19.2597 17.3987 20.2661 17.1553 21.3997 17.1553C22.4888 17.1553 23.4839 17.3655 24.3841 17.7845C25.2846 18.2042 25.9683 18.9433 26.4352 20.003C26.9462 19.2527 27.6409 18.5903 28.5194 18.0163C29.3974 17.4427 30.4367 17.1553 31.6374 17.1553C32.549 17.1553 33.3934 17.2659 34.1722 17.4866C34.9498 17.7074 35.6168 18.0605 36.1727 18.5461C36.728 19.0321 37.1614 19.6667 37.4733 20.4496C37.7844 21.234 37.9402 22.1772 37.9402 23.2813V34.7375L33.2048 34.7373V25.0358C33.2048 24.4622 33.1827 23.9213 33.138 23.4132C33.0931 22.9059 32.9714 22.4647 32.7713 22.0889C32.5711 21.7139 32.2761 21.4156 31.8876 21.1947C31.4985 20.9748 30.9703 20.8638 30.3035 20.8638C29.6367 20.8638 29.0974 20.9915 28.6861 21.2445C28.2744 21.4987 27.9523 21.83 27.7191 22.2379C27.4857 22.6468 27.33 23.1101 27.2524 23.6292C27.1741 24.1476 27.1355 24.6721 27.1355 25.2018V34.7375H22.4004V25.1355C22.4004 24.6279 22.3887 24.1255 22.3674 23.6292C22.3447 23.1322 22.2505 22.6743 22.0835 22.2546C21.9167 21.8356 21.6387 21.4987 21.2497 21.2445C20.8606 20.9915 20.2882 20.8638 19.5324 20.8638C19.3098 20.8638 19.0152 20.9135 18.6488 21.0131C18.2819 21.1125 17.926 21.3005 17.5817 21.5759C17.2366 21.8521 16.9424 22.2495 16.6978 22.7678C16.4531 23.2868 16.331 23.9652 16.331 24.8039V34.7373L11.5959 34.7375V17.6187H16.0641Z" fill="url(#paint2_linear_1_151)"/>
<path d="M46.5505 48.9011V3.09879H43.2307V2H47.8248V50H43.2307V48.9011H46.5505Z" fill="url(#paint3_linear_1_151)"/>
<path fill-rule="evenodd" clip-rule="evenodd" d="M41.9807 0.75H49.0748V51.25H41.9807V47.6511H45.3005V4.34879H41.9807V0.75Z" fill="url(#paint4_linear_1_151)"/>
<defs>
<linearGradient id="paint0_linear_1_151" x1="4.29689" y1="2" x2="4.29689" y2="50" gradientUnits="userSpaceOnUse">
<stop stop-color="#1E8CFF"/>
<stop offset="1" stop-color="#6566FF"/>
</linearGradient>
<linearGradient id="paint1_linear_1_151" x1="4.29689" y1="0.75" x2="4.29689" y2="51.25" gradientUnits="userSpaceOnUse">
<stop stop-color="#1E8CFF"/>
<stop offset="1" stop-color="#6566FF"/>
</linearGradient>
<linearGradient id="paint2_linear_1_151" x1="24.7681" y1="17.1553" x2="24.7681" y2="34.7375" gradientUnits="userSpaceOnUse">
<stop stop-color="#1E8CFF"/>
<stop offset="1" stop-color="#6566FF"/>
</linearGradient>
<linearGradient id="paint3_linear_1_151" x1="45.5277" y1="2" x2="45.5277" y2="50" gradientUnits="userSpaceOnUse">
<stop stop-color="#1E8CFF"/>
<stop offset="1" stop-color="#6566FF"/>
</linearGradient>
<linearGradient id="paint4_linear_1_151" x1="45.5277" y1="0.75" x2="45.5277" y2="51.25" gradientUnits="userSpaceOnUse">
<stop stop-color="#1E8CFF"/>
<stop offset="1" stop-color="#6566FF"/>
</linearGradient>
</defs>
</svg>
