<svg width="50" height="35" viewBox="0 0 50 35" fill="none" xmlns="http://www.w3.org/2000/svg">
<path fill-rule="evenodd" clip-rule="evenodd" d="M10.7363 0.0440902C10.7111 0.0793928 10.69 0.602062 10.6895 1.206C10.6881 2.68017 10.9327 2.53375 8.42044 2.56289L7.25384 2.57644C6.6997 2.58288 6.25124 3.02901 6.24192 3.58311V3.58311C6.23278 4.13042 6.20927 4.67417 6.18982 4.79145V4.79145C6.16952 4.91445 6.06318 5.00469 5.93851 5.00469H4.03802C2.48215 5.00469 1.9001 5.03478 1.84038 5.11841C1.77966 5.20347 1.75919 6.29074 1.75919 9.42722C1.75919 14.334 1.87777 13.8185 0.748671 13.8185V13.8185C0.335192 13.8185 0 14.1537 0 14.5671V17.5146V20.5046C0 20.8946 0.316107 21.2107 0.706045 21.2107V21.2107C1.09442 21.2107 1.49024 21.2524 1.58564 21.3031V21.3031C1.69245 21.36 1.75919 21.4711 1.75919 21.5921V25.56C1.75919 27.8506 1.77763 29.792 1.8003 29.8745C1.83649 30.0069 2.09378 30.0245 3.99793 30.0245H5.93851C6.06318 30.0245 6.16952 30.1147 6.18982 30.2377V30.2377C6.20927 30.355 6.23278 30.8987 6.24192 31.4461V31.4461C6.25124 32.0001 6.69972 32.4462 7.25384 32.4526L8.43972 32.4663L10.4059 32.4887C10.5302 32.4901 10.6355 32.5805 10.6558 32.7032V32.7032C10.6751 32.8195 10.6984 33.3841 10.7076 33.9575V33.9575C10.7168 34.5359 11.1884 35 11.7669 35H13.8029H13.8964C15.5474 35 16.8881 33.6659 16.8963 32.0149L16.9153 28.2079C16.9339 24.4723 16.9745 21.3803 17.0055 21.337C17.0883 21.2211 32.6259 21.1865 32.8424 21.3017V21.3017C32.9504 21.3591 33.018 21.4714 33.0183 21.5937L33.0351 28.1975L33.0448 32.0077C33.0491 33.6615 34.391 35 36.0448 35H36.1311H38.0525C38.697 35 39.2247 34.4875 39.2435 33.8433V33.8433C39.2621 33.2072 39.3088 32.6428 39.3474 32.589C39.3917 32.5272 40.1989 32.4821 41.5463 32.4663L42.6801 32.4529C43.2343 32.4464 43.6827 32.0002 43.6921 31.4461V31.4461C43.7012 30.8987 43.7245 30.3555 43.7438 30.2391V30.2391C43.7641 30.1165 43.8694 30.026 43.9937 30.0246L45.9599 30.0022V30.0022C47.1712 29.9883 48.1486 29.0074 48.1582 27.796L48.1748 25.6965C48.1934 23.3421 48.234 21.3803 48.2648 21.337C48.2957 21.2936 48.6763 21.2434 49.1104 21.2256C49.6111 21.205 49.9181 21.1531 49.9497 21.0835C50.0092 20.9522 50.0197 14.1841 49.9605 13.9685C49.9265 13.8438 49.7895 13.8185 49.1535 13.8185C48.0696 13.8185 48.1748 14.2921 48.1748 9.41253C48.1748 7.15317 48.1563 5.23712 48.1337 5.15466C48.0975 5.02222 47.8402 5.00469 45.936 5.00469H43.9955C43.8708 5.00469 43.7644 4.91445 43.7442 4.79145V4.79145C43.7247 4.67417 43.7012 4.13042 43.6921 3.58311V3.58311C43.6827 3.02903 43.2343 2.58293 42.6801 2.57655L41.4932 2.56289C40.2931 2.54915 39.3068 2.52783 39.3015 2.5155C39.2961 2.50342 39.2733 1.93882 39.2508 1.2612V1.2612C39.2279 0.574218 38.6643 0.0291628 37.977 0.0291628H36.1311H36.0372C34.3864 0.0291628 33.0457 1.36301 33.0373 3.01387L33.0175 6.90013C32.9984 10.6792 32.9755 13.7818 32.9667 13.7948C32.9581 13.8078 29.3582 13.8185 24.967 13.8185C20.5758 13.8185 16.976 13.8078 16.9676 13.7948C16.9591 13.7818 16.9363 10.6792 16.9168 6.90013L16.8967 2.98971C16.8883 1.34835 15.5623 0.0185046 13.921 0.00524343L13.8318 0.00452299C12.1545 -0.00898201 10.7615 0.00878768 10.7363 0.0440902ZM15.1226 2.75386C15.1427 2.87114 15.151 9.59876 15.1409 17.7041L15.1239 31.1218C15.123 31.8507 14.5318 32.4412 13.8029 32.4412V32.4412V32.4412C13.0739 32.4412 12.4827 31.8507 12.4818 31.1218L12.4649 17.7041C12.4547 9.59876 12.463 2.87114 12.4832 2.75386C12.5197 2.54204 12.5283 2.54062 13.8029 2.54062C15.0775 2.54062 15.0861 2.54204 15.1226 2.75386ZM37.4505 17.5146V31.1384C37.4505 31.862 36.8715 32.4526 36.148 32.467V32.467V32.467C35.4328 32.481 34.8455 31.9051 34.8455 31.1898V17.5797C34.8455 9.3777 34.8665 2.63752 34.892 2.60175C34.9177 2.56597 35.5039 2.5482 36.1945 2.56218V2.56218C36.8923 2.57653 37.4505 3.1463 37.4505 3.84423V17.5146ZM10.6494 5.15466C10.7118 5.38259 10.6964 29.7698 10.6338 29.9081C10.592 30.0003 10.2845 30.0228 9.33234 30.0029V30.0029C8.63932 29.9886 8.08473 29.4232 8.08376 28.73L8.06809 17.6094C8.05862 10.8071 8.06521 5.18831 8.08298 5.12315C8.1366 4.92555 10.5949 4.95588 10.6494 5.15466ZM41.8688 5.11841C41.9867 5.28355 41.9867 29.7456 41.8688 29.9107C41.7321 30.1022 39.3377 30.0685 39.2846 29.8745C39.1992 29.5629 39.2386 5.23901 39.3247 5.11841C39.4389 4.95849 41.7546 4.95849 41.8688 5.11841ZM6.191 17.5146V26.175C6.191 26.8658 5.63866 27.4297 4.94806 27.4441V27.4441C4.0886 27.4621 3.67637 27.4365 3.61175 27.3614C3.48168 27.2102 3.47119 7.85708 3.6011 7.67512C3.66149 7.59054 4.01924 7.56637 4.93741 7.58509V7.58509C5.63388 7.59944 6.191 8.16815 6.191 8.86478V17.5146ZM46.3344 7.67726C46.4205 7.79785 46.4597 27.0048 46.3745 27.3157C46.3126 27.5417 43.8122 27.5417 43.7502 27.3157C43.6965 27.1197 43.6965 7.90945 43.7502 7.71351C43.8034 7.51946 46.1977 7.48582 46.3344 7.67726ZM32.9864 16.4958C33.0072 16.6131 33.0155 17.1568 33.0046 17.7041V17.7041C32.9936 18.2574 32.5429 18.7006 31.9895 18.7022L25.005 18.7234C18.6659 18.7424 17.0141 18.7229 16.9713 18.6286C16.9084 18.4898 16.8958 16.6531 16.9564 16.4325C16.9934 16.297 17.7628 16.2825 24.9729 16.2825H32.7319C32.8572 16.2825 32.9644 16.3724 32.9864 16.4958V16.4958Z" fill="url(#paint0_linear_607_5)"/>
<defs>
<linearGradient id="paint0_linear_607_5" x1="54.375" y1="-13.6895" x2="17.484" y2="49.5699" gradientUnits="userSpaceOnUse">
<stop stop-color="#00ADFE"/>
<stop offset="1" stop-color="#3B7DFF"/>
</linearGradient>
</defs>
</svg>
